Analisis_911
…
## # A tibble: 6 x 2
## # Groups:   twp [6]
##   twp              n
##   <chr>        <int>
## 1 LOWER MERION 55490
## 2 ABINGTON     39947
## 3 NORRISTOWN   37633
## 4 UPPER MERION 36010
## 5 CHELTENHAM   30574
## 6 POTTSTOWN    27387

#aux contiene el numero total de twp (69)
aux

## # A tibble: 69 x 2
## # Groups:   twp [69]
##    twp                  n
##    <chr>            <int>
##  1 LOWER MERION     55490
##  2 ABINGTON         39947
##  3 NORRISTOWN       37633
##  4 UPPER MERION     36010
##  5 CHELTENHAM       30574
##  6 POTTSTOWN        27387
##  7 UPPER MORELAND   22932
##  8 LOWER PROVIDENCE 22476
##  9 PLYMOUTH         20116
## 10 UPPER DUBLIN     18862
## #  with 59 more rows
…
## # A tibble: 6 x 2
## # Groups:   addr [6]
##   addr                                  n
##   <chr>                             <int>
## 1 SHANNONDELL DR & SHANNONDELL BLVD  7285
## 2 MAIN ST & OLD SUMNEYTOWN PIKE      2576
## 3 THE FAIRWAY  & RYDAL RD            1986
## 4 EAGLEVILLE RD & SUNDERLAND DR      1618
## 5 EVERGREEN RD & W LIGHTCAP RD       1591
## 6 GERMANTOWN PIKE & HANNAH AVE       1557

#direcciones_llamadas contiene el numero total de add (41292)
direcciones_masllamadas

## # A tibble: 41,292 x 2
## # Groups:   addr [41,292]
##    addr                                      n
##    <chr>                                 <int>
##  1 SHANNONDELL DR & SHANNONDELL BLVD      7285
##  2 MAIN ST & OLD SUMNEYTOWN PIKE          2576
##  3 THE FAIRWAY  & RYDAL RD                1986
##  4 EAGLEVILLE RD & SUNDERLAND DR          1618
##  5 EVERGREEN RD & W LIGHTCAP RD           1591
##  6 GERMANTOWN PIKE & HANNAH AVE           1557
##  7 GULPH RD & KIRK AVE                    1440
##  8 BLACK ROCK RD & S TRAPPE RD            1425
##  9 DAVISVILLE RD & PENNYPACK RD           1367
## 10 SCHUYLKILL EXPY & WEADLEY RD OVERPASS  1287
## #  with 41,282 more rows
…
